{
    "taskDefinition": "site-management:1",
    "cluster": "site-management",
    "loadBalancers": [
        {
            "targetGroupArn": "target-group-arn",
            "containerName": "site-m-1701",
            "containerPort": 80
        }
    ],
    "desiredCount": 1,
    "launchType": "FARGATE",
    "schedulingStrategy": "REPLICA",
    "deploymentController": {
        "type": "CODE_DEPLOY"
    },
    "networkConfiguration": {
        "awsvpcConfiguration": {
            "subnets": [
                "subnet-1",
                "subnet-2"
            ],
            "securityGroups": [
                "security-group"
            ],
            "assignPublicIp": "ENABLED"
        }
    }
}