{
    "local": {
        "awscloudformation": {
            "AuthRoleName": "amplify-scythe-local-193510-authRole",
            "UnauthRoleArn": "arn:aws:iam::612082999652:role/amplify-scythe-local-193510-unauthRole",
            "AuthRoleArn": "arn:aws:iam::612082999652:role/amplify-scythe-local-193510-authRole",
            "Region": "eu-west-1",
            "DeploymentBucketName": "amplify-scythe-local-193510-deployment",
            "UnauthRoleName": "amplify-scythe-local-193510-unauthRole",
            "StackName": "amplify-scythe-local-193510",
            "StackId": "arn:aws:cloudformation:eu-west-1:612082999652:stack/amplify-scythe-local-193510/491e1360-6858-11ea-92a6-02ccbabe1234",
            "AmplifyAppId": "d3rl6t9d2kd7m4"
        },
        "categories": {
            "auth": {
                "scythe1e1c6092": {}
            }
        }
    },
    "newlocal": {
        "awscloudformation": {
            "AuthRoleName": "amplify-scythe-newlocal-154231-authRole",
            "UnauthRoleArn": "arn:aws:iam::612082999652:role/amplify-scythe-newlocal-154231-unauthRole",
            "AuthRoleArn": "arn:aws:iam::612082999652:role/amplify-scythe-newlocal-154231-authRole",
            "Region": "us-east-1",
            "DeploymentBucketName": "amplify-scythe-newlocal-154231-deployment",
            "UnauthRoleName": "amplify-scythe-newlocal-154231-unauthRole",
            "StackName": "amplify-scythe-newlocal-154231",
            "StackId": "arn:aws:cloudformation:us-east-1:612082999652:stack/amplify-scythe-newlocal-154231/f36dfe90-6900-11ea-895d-1245bb6cedee",
            "AmplifyAppId": "d30cay276yni5d"
        },
        "categories": {
            "auth": {
                "scythe1e1c6092": {}
            }
        }
    }
}